<?xml version="1.0" encoding="utf-8"?>
<!-- Generator: Adobe Illustrator 16.0.0, SVG Export Plug-In . SVG Version: 6.00 Build 0)  -->
<!DOCTYPE svg PUBLIC "-//W3C//DTD SVG 1.1//EN" "http://www.w3.org/Graphics/SVG/1.1/DTD/svg11.dtd">
<svg version="1.1" id="Layer_1" xmlns="http://www.w3.org/2000/svg" xmlns:xlink="http://www.w3.org/1999/xlink" x="0px" y="0px"
	 width="30px" height="30px" viewBox="0 0 30 30" enable-background="new 0 0 30 30" xml:space="preserve">
<g>
	<circle fill="#FFC134" cx="15.283" cy="15.513" r="12.625"/>
	<g>
		<path fill="#C68D26" d="M15,3.246c3.141,0,6.092,1.222,8.312,3.442s3.442,5.173,3.442,8.313s-1.222,6.093-3.442,8.314
			S18.142,26.758,15,26.758s-6.093-1.222-8.313-3.442S3.244,18.141,3.244,15c0-3.139,1.224-6.093,3.442-8.313
			C8.906,4.466,11.86,3.246,15,3.246 M15,1C7.269,1,1,7.269,1,15c0,7.732,6.269,14,14,14c7.729,0,14-6.268,14-14
			C29,7.269,22.729,1,15,1z"/>
	</g>
	<g>
		<path fill="#C68D26" d="M22.702,20.535c-0.899,0.342-1.777,0.439-1.935,0.23l-0.004,0.001c-2.201-1.896-5.098-3.062-7.898-3.062
			c-2.744,0-4.68,1.151-5.943,3.009H6.918c-0.019,0.053-0.156,0.105-0.31,0.105c-0.171,0-0.305-0.035-0.305-0.115
			c0-0.004,0-0.01,0.001-0.016c0-0.003,0-0.006,0.001-0.006c1.504-3.262,4.277-5.353,8.284-5.353c3.395,0,7.046,1.558,9.672,4.021
			h-0.004c0.025,0.019,0.042,0.038,0.051,0.065C24.395,19.662,23.701,20.154,22.702,20.535z"/>
		<path fill="#C68D26" d="M20.867,15.966c-0.024-0.015-0.252-0.127-0.401-0.203c-0.273-0.139-0.665-0.299-1.155-0.482
			c-0.059-0.024-0.121-0.045-0.184-0.068c-0.105-0.039-0.219-0.081-0.335-0.121c-0.699-0.248-1.509-0.458-2.428-0.585
			c-0.155-0.021-0.339-0.041-0.541-0.058c-0.379-0.036-0.759-0.057-1.136-0.057c-0.188,0-0.375,0.006-0.558,0.015
			c-0.188,0.007-0.368,0.02-0.536,0.035c-1.083,0.111-1.702,0.32-1.887,0.385c-0.112,0.039-0.238,0.019-0.254-0.082
			c-0.027-0.187,0.042-0.592,0.077-0.845c0.146-1.101,0.215-2.333-0.14-3.614c-0.353-1.278-1.248-2.482-1.494-2.86
			c-0.273-0.419-0.086-0.565,0.23-0.624c1.38-0.26,4.288,0.508,5.74,1.178c1.726,0.796,4.942,3.341,5.188,7.703
			C21.067,15.96,21.002,16.042,20.867,15.966z"/>
	</g>
</g>
</svg>
