<?xml version="1.0" encoding="utf-8"?>
<!-- Generator: Adobe Illustrator 16.0.0, SVG Export Plug-In . SVG Version: 6.00 Build 0)  -->
<!DOCTYPE svg PUBLIC "-//W3C//DTD SVG 1.1//EN" "http://www.w3.org/Graphics/SVG/1.1/DTD/svg11.dtd">
<svg version="1.1" id="Layer_1" xmlns="http://www.w3.org/2000/svg" xmlns:xlink="http://www.w3.org/1999/xlink" x="0px" y="0px"
	 width="30px" height="30px" viewBox="0 0 30 30" enable-background="new 0 0 30 30" xml:space="preserve">
<path fill="#F08D3D" d="M15,1C7.268,1,1,7.268,1,15c0,7.732,6.268,14,14,14c7.732,0,14-6.268,14-14C29,7.268,22.732,1,15,1z
	 M13.158,6.523h3.707v4.171h-0.002v0.001c0,1.259-0.049,2.433-0.141,3.519c-0.093,1.09-0.22,2.19-0.373,3.313h-2.658
	c-0.155-1.123-0.284-2.224-0.385-3.313c-0.099-1.086-0.149-2.258-0.149-3.519V6.523z M16.398,22.959
	c-0.414,0.342-0.881,0.518-1.4,0.518c-0.519,0-0.987-0.176-1.397-0.518c-0.411-0.35-0.617-0.838-0.617-1.479
	c0-0.637,0.206-1.129,0.617-1.476c0.41-0.348,0.878-0.521,1.397-0.521c0.52,0,0.984,0.173,1.4,0.521
	c0.414,0.347,0.619,0.841,0.619,1.476C17.018,22.118,16.812,22.609,16.398,22.959z"/>
</svg>
