<?xml version="1.0" encoding="utf-8"?>
<!-- Generator: Adobe Illustrator 16.0.0, SVG Export Plug-In . SVG Version: 6.00 Build 0)  -->
<!DOCTYPE svg PUBLIC "-//W3C//DTD SVG 1.1//EN" "http://www.w3.org/Graphics/SVG/1.1/DTD/svg11.dtd">
<svg version="1.1" id="Layer_1" xmlns="http://www.w3.org/2000/svg" xmlns:xlink="http://www.w3.org/1999/xlink" x="0px" y="0px"
	 width="500px" height="223px" viewBox="4986.381 6042.364 500 223" enable-background="new 4986.381 6042.364 500 223"
	 xml:space="preserve">
<g>
	<path fill="#E5E5E5" d="M5232.366,6060.586c-0.476,0-0.968,0.032-1.475,0.1l-36.663,4.924c-2.67,0.35-4.85,1.852-6.124,3.932
		c0.657-0.309,1.39-0.526,2.192-0.635l36.809-4.945c0.5-0.066,0.983-0.1,1.451-0.1c3.881,0,6.625,2.275,7.87,6.273l2.995,10.043
		l4.885-0.66l-3.615-12.291C5239.403,6063.019,5236.466,6060.586,5232.366,6060.586 M5234.761,6050.738
		c-0.011,0.001-0.022,0.002-0.033,0.004l-52.154,6.807c-3.184,0.393-14.748,3.725-12.565,17.961l2.244,13.729l5.451-0.735
		l-2.426-16.041c-1.41-9.212,4.967-14.408,9.172-14.938L5234.761,6050.738"/>
	<path fill="#E7E9E9" d="M5237.555,6050.42c-0.268,0-0.535,0.016-0.803,0.05l-1.991,0.269l-50.312,6.787
		c-4.205,0.529-10.582,5.726-9.172,14.938l2.426,16.041l11.201-1.512l-1.877-11.445c-0.41-2.182,0.025-4.29,1.077-6.006
		c1.274-2.08,3.454-3.582,6.124-3.932l36.663-4.924c0.507-0.067,0.999-0.1,1.475-0.1c4.1,0,7.037,2.433,8.325,6.641l3.615,12.291
		l9.949-1.342l-5.847-18.506C5246.955,6055.26,5242.189,6050.42,5237.555,6050.42"/>
	<path fill="#EEF1F2" d="M5316.699,6069.752l-62.443,8.424l-9.949,1.342l-4.885,0.66l-50.518,6.814l-11.201,1.512l-5.451,0.735
		l-63.873,8.618l0.037,0.1c3.891,0.793,9.115,3.533,14.547,11.612c-1.373-3.335,19.174-4.207,37.969-4.207
		c14.412,0,27.793,0.513,29.473,0.819l125.589-12.273c1.333-0.025,2.817-0.111,4.382-0.217l-0.176-0.576
		C5317.283,6079.152,5314.222,6072.227,5316.699,6069.752 M5323.929,6068.775l-1.935,0.262c0.668,0.188,1.37,0.458,2.1,0.816
		L5323.929,6068.775"/>
	<path fill="#E5E5E5" d="M5105.634,6097.674c-0.899,0-1.661,0.088-2.261,0.184c-5.942,0.941-13.221,8.594-9.561,25.943
		l30.205,131.471l1.679,7.314l217.702-0.103c-1.346-0.469-2.383-1.669-2.754-3.45l-1.496-7.146l-174.93,6.48l-13.757-50.779
		c-0.302-0.654-0.534-1.34-0.684-2.051l-21.183-39.248l-20.662-43.524c-0.953-2.312-12.279-10.586,0.597-10.585
		c2.239,0,5.211,0.25,9.095,0.825l7.27,0.368c-0.703-1.566-1.354-2.861-1.932-3.803c0,0,0,0,0-0.001
		c-5.432-8.079-10.656-10.819-14.547-11.612C5107.389,6097.748,5106.454,6097.674,5105.634,6097.674"/>
	<path fill="#E7E9E9" d="M5366.416,6250.876l-27.268,1.011l1.496,7.146c0.371,1.781,1.408,2.981,2.754,3.45
		c0.417,0.146,0.863,0.22,1.328,0.22c0.848,0,1.756-0.248,2.662-0.771l18.162-10.469
		C5365.852,6251.29,5366.141,6251.094,5366.416,6250.876"/>
	<path fill="#EAECEE" d="M5354.717,6168.836c-0.025,0.013-0.052,0.025-0.078,0.037l1.661,6.068
		c-1.515,1.352-3.419,2.335-5.597,2.736l-70.689,14.107l0.039,0.189c0.792,3.848-1.709,7.644-5.557,8.436l-2.148,0.441
		c-0.41,0.17-0.843,0.305-1.293,0.396l-9.467,1.946c-0.479,0.099-0.959,0.146-1.432,0.146c-3.316,0-6.312-2.335-7.004-5.703
		l-0.097-0.471l-88.294,17.621c-0.691,0.129-1.399,0.19-2.112,0.19c-4.954,0-10.159-2.995-12.188-7.39l13.757,50.779l174.93-6.48
		l27.268-1.011l2.52-0.093c4.134-0.846,6.776-4.782,5.879-8.752L5354.717,6168.836"/>
	<path fill="#E5E5E5" d="M5354.639,6168.873c-0.857,0.393-1.781,0.689-2.757,0.869l-73.389,14.646l1.521,7.396l70.689-14.107
		c2.178-0.401,4.082-1.385,5.597-2.736L5354.639,6168.873 M5108.53,6112.18c-12.876-0.001-1.55,8.273-0.597,10.585l20.662,43.524
		l21.183,39.248c0.149,0.711,0.382,1.396,0.684,2.051c2.028,4.395,7.233,7.39,12.188,7.39c0.713,0,1.421-0.062,2.112-0.19
		l88.294-17.621l-1.522-7.397l-85.592,17.081c-0.693,0.129-1.399,0.191-2.112,0.191c-5.694,0-11.715-3.953-12.872-9.441
		l-11.162-39.248c-1.114-5.284-9.521-33.011-14.9-44.979l-7.27-0.368C5113.741,6112.43,5110.77,6112.18,5108.53,6112.18"/>
	<path fill="#EEF1F2" d="M5320.375,6093.691c-1.564,0.105-3.049,0.191-4.382,0.217l-125.589,12.273
		c-1.68-0.307-15.061-0.819-29.473-0.819c-18.795,0-39.342,0.872-37.969,4.207c0,0.001,0,0.001,0,0.001
		c0.577,0.941,1.229,2.236,1.932,3.803c5.38,11.968,13.786,39.694,14.9,44.979l11.162,39.248c1.157,5.488,7.178,9.441,12.872,9.441
		c0.713,0,1.419-0.062,2.112-0.191l85.592-17.081l-1.664-8.089c-0.791-3.85,1.709-7.645,5.557-8.436l2.146-0.441
		c0.412-0.172,0.846-0.306,1.297-0.398l9.467-1.945c0.48-0.1,0.959-0.146,1.433-0.146c3.315,0,6.31,2.336,7.003,5.703l1.722,8.373
		l73.389-14.646c0.976-0.18,1.899-0.477,2.757-0.869c0.026-0.012,0.053-0.024,0.078-0.037c4.564-2.133,7.258-7.037,6.213-12.042
		l-19.166-59.892c-0.069-0.33-0.182-0.633-0.336-0.911c0.649,2.21,1.244,4.573,1.771,7.097l12.655,41.883
		c1.48,7.078,0.402,13.247-5.514,14.273c-0.524,0.091-1.05,0.135-1.571,0.135c-5.374,0-10.478-4.668-11.831-11.141
		L5320.375,6093.691"/>
	<path fill="#EEF1F2" d="M5319.804,6068.709c-0.308,0-0.604,0.023-0.882,0.066c-0.997,0.158-1.723,0.477-2.223,0.977
		c-2.478,2.475,0.584,9.4,3.5,23.363l0.176,0.576l16.562,54.547c1.354,6.473,6.457,11.141,11.831,11.141
		c0.521,0,1.047-0.044,1.571-0.135c5.916-1.026,6.994-7.195,5.514-14.273l-12.655-41.883c-0.526-2.523-1.121-4.887-1.771-7.097
		c-4.529-15.431-11.721-23.381-17.334-26.138c-0.729-0.358-1.432-0.629-2.1-0.816
		C5321.209,6068.816,5320.474,6068.709,5319.804,6068.709"/>
	<path fill="#F7F3EB" d="M5256.527,6196.473l-3.472,0.693l0.097,0.471c0.691,3.368,3.688,5.703,7.004,5.703
		c0.473,0,0.952-0.047,1.432-0.146l9.467-1.946c0.45-0.092,0.883-0.227,1.293-0.396l-7.318,1.506
		c-0.48,0.099-0.96,0.146-1.433,0.146c-3.317,0-6.312-2.337-7.003-5.705L5256.527,6196.473"/>
	<polyline fill="#E5E5E5" points="5255.006,6189.076 5251.533,6189.769 5253.056,6197.166 5256.527,6196.473 5255.006,6189.076 	"/>
	<polyline fill="#F7F3EB" points="5255.006,6189.076 5251.533,6189.769 5253.056,6197.166 5256.527,6196.473 5255.006,6189.076 	"/>
	<path fill="#F7F3EB" d="M5257.572,6172.803l-2.146,0.441c-3.848,0.791-6.348,4.586-5.557,8.436l1.664,8.089l3.473-0.692
		l-1.695-8.236C5252.612,6177.443,5254.479,6174.088,5257.572,6172.803"/>
	<path fill="#FFFAEF" d="M5269.769,6170.312c-0.474,0-0.952,0.047-1.433,0.146l-9.467,1.945c-0.451,0.093-0.885,0.227-1.297,0.398
		c-3.094,1.285-4.96,4.641-4.262,8.037l1.695,8.236l1.521,7.396l0.066,0.326c0.691,3.368,3.686,5.705,7.003,5.705
		c0.473,0,0.952-0.048,1.433-0.146l7.318-1.506l2.148-0.441c3.848-0.792,6.349-4.588,5.557-8.436l-0.039-0.189l-1.521-7.396
		l-1.722-8.373C5276.078,6172.648,5273.084,6170.312,5269.769,6170.312"/>
</g>
<polygon fill="#FFFFFF" points="5486.381,6264.939 4986.381,6264.939 4986.381,6248.096 4996.364,6248.075 5037,6238.977 
	5076.539,6247.899 5408.345,6247.181 5433.95,6237.105 5469.662,6247.048 5486.381,6248.096 "/>
<g>
	<path fill="#C5D5E0" d="M5114.215,6248.398l1.346,5.859c0.247,1.078,1.322,1.752,2.401,1.504c1.079-0.247,1.752-1.323,1.504-2.402
		l-1.346-5.859c-0.248-1.078-1.323-1.751-2.402-1.503C5114.64,6246.244,5113.966,6247.32,5114.215,6248.398z M5110.176,6230.82
		l1.346,5.859c0.248,1.078,1.323,1.752,2.401,1.504c1.078-0.247,1.753-1.323,1.505-2.402l-1.346-5.859
		c-0.249-1.078-1.323-1.751-2.402-1.503C5110.601,6228.666,5109.927,6229.742,5110.176,6230.82z M5106.137,6213.242l1.346,5.859
		c0.249,1.078,1.323,1.752,2.402,1.504c1.078-0.247,1.753-1.323,1.504-2.402l-1.347-5.859c-0.246-1.078-1.322-1.751-2.401-1.503
		C5106.562,6211.088,5105.89,6212.164,5106.137,6213.242z M5102.099,6195.664l1.347,5.859c0.246,1.078,1.322,1.752,2.401,1.504
		c1.078-0.247,1.751-1.323,1.504-2.402l-1.347-5.859c-0.248-1.078-1.323-1.751-2.402-1.503
		C5102.523,6193.51,5101.85,6194.586,5102.099,6195.664z M5098.06,6178.086l1.346,5.859c0.248,1.078,1.323,1.752,2.401,1.504
		c1.079-0.247,1.753-1.323,1.505-2.402l-1.346-5.859c-0.248-1.078-1.323-1.751-2.401-1.503
		C5098.486,6175.932,5097.812,6177.008,5098.06,6178.086z M5094.021,6160.508l1.346,5.859c0.248,1.078,1.323,1.752,2.402,1.504
		c1.078-0.247,1.752-1.323,1.503-2.402l-1.346-5.859c-0.247-1.078-1.322-1.751-2.401-1.503
		C5094.446,6158.354,5093.773,6159.43,5094.021,6160.508z M5089.982,6142.93l1.347,5.859c0.247,1.078,1.323,1.753,2.401,1.505
		s1.752-1.323,1.505-2.402l-1.347-5.859c-0.248-1.078-1.323-1.752-2.402-1.504
		C5090.408,6140.776,5089.734,6141.852,5089.982,6142.93z M5085.939,6125.312l0.03,0.146l0.001,0.006l0.012,0.055l1.308,5.692
		c0.248,1.078,1.322,1.753,2.402,1.505c1.078-0.248,1.752-1.323,1.504-2.401l-1.302-5.664l-1.952,0.449l1.96-0.421l-0.012-0.055
		v0.006l-0.028-0.138c-0.227-1.083-1.288-1.777-2.371-1.552C5086.407,6123.168,5085.712,6124.229,5085.939,6125.312z
		 M5085.818,6106.527c-0.501,1.973-0.82,4.08-0.947,6.317c-0.062,1.104,0.782,2.051,1.888,2.113
		c1.104,0.062,2.052-0.783,2.114-1.887c0.112-2,0.396-3.852,0.83-5.558c0.271-1.073-0.378-2.163-1.45-2.435
		C5087.18,6104.806,5086.09,6105.454,5085.818,6106.527z M5097.523,6091.354c-1.969,0.914-3.82,2.202-5.463,3.83
		c-0.786,0.778-0.792,2.048-0.014,2.834s2.048,0.792,2.834,0.014c1.325-1.313,2.796-2.331,4.331-3.043
		c1.003-0.467,1.438-1.658,0.973-2.662C5099.718,6091.322,5098.526,6090.887,5097.523,6091.354L5097.523,6091.354z
		 M5115.847,6088.229l-5.966,0.741c-1.099,0.136-1.878,1.137-1.742,2.235c0.137,1.098,1.138,1.878,2.236,1.742l5.966-0.741
		c1.099-0.136,1.878-1.137,1.742-2.235C5117.946,6088.872,5116.945,6088.093,5115.847,6088.229z M5133.746,6086.008l-5.966,0.74
		c-1.1,0.136-1.878,1.137-1.742,2.236c0.136,1.098,1.137,1.877,2.236,1.741l5.965-0.74c1.099-0.137,1.879-1.138,1.741-2.236
		C5135.846,6086.651,5134.844,6085.871,5133.746,6086.008z M5151.645,6083.786l-5.967,0.741c-1.098,0.136-1.878,1.137-1.741,2.235
		c0.137,1.098,1.137,1.878,2.235,1.742l5.966-0.741c1.099-0.136,1.879-1.137,1.742-2.235
		C5153.744,6084.43,5152.743,6083.65,5151.645,6083.786z M5162.616,6079.987l0.728,4.444l1.978-0.322l-0.247-1.988l-1.497,0.185
		c-1.099,0.136-1.879,1.137-1.742,2.236c0.137,1.098,1.138,1.877,2.236,1.741l3.564-0.442l-1.064-6.5
		c-0.178-1.093-1.209-1.833-2.302-1.653C5163.178,6077.866,5162.438,6078.896,5162.616,6079.987L5162.616,6079.987z
		 M5164.352,6061.13c-0.068,0.127-0.135,0.254-0.201,0.383l0.004-0.006c-0.908,1.764-1.588,3.727-1.996,5.84
		c-0.209,1.088,0.501,2.139,1.589,2.349c1.086,0.21,2.138-0.502,2.347-1.589c0.339-1.755,0.897-3.354,1.622-4.763l0.003-0.006
		c0.055-0.104,0.108-0.206,0.163-0.31c0.523-0.976,0.159-2.19-0.815-2.714C5166.092,6059.79,5164.877,6060.155,5164.352,6061.13z
		 M5179.874,6049.889c-0.188,0.041-0.38,0.084-0.578,0.132l-0.004,0.001c-1.448,0.354-3.162,0.91-5.006,1.799
		c-0.183,0.088-0.364,0.178-0.546,0.271c-0.984,0.506-1.374,1.715-0.867,2.699c0.505,0.983,1.712,1.371,2.696,0.866
		c0.155-0.078,0.308-0.154,0.458-0.228c1.558-0.751,3-1.219,4.215-1.514h-0.004c0.165-0.039,0.326-0.076,0.481-0.109
		c1.081-0.234,1.771-1.3,1.536-2.382C5182.022,6050.342,5180.955,6049.654,5179.874,6049.889z M5197.819,6047.476l-5.961,0.778
		c-1.098,0.144-1.871,1.149-1.729,2.247c0.145,1.097,1.15,1.871,2.247,1.727l5.962-0.777c1.097-0.145,1.871-1.15,1.728-2.247
		C5199.923,6048.105,5198.917,6047.332,5197.819,6047.476z M5215.705,6045.141l-5.963,0.778c-1.097,0.144-1.87,1.149-1.727,2.247
		c0.143,1.097,1.148,1.871,2.247,1.728l5.961-0.778c1.098-0.144,1.871-1.149,1.728-2.247S5216.802,6044.998,5215.705,6045.141z
		 M5233.588,6042.806l-5.961,0.779c-1.098,0.143-1.871,1.148-1.728,2.246s1.149,1.871,2.246,1.728l5.961-0.778
		c1.099-0.144,1.871-1.149,1.729-2.246C5235.692,6043.436,5234.687,6042.663,5233.588,6042.806z M5251.444,6049.357
		c-1.241-1.405-2.669-2.691-4.286-3.798l-0.007-0.004c-0.23-0.158-0.467-0.312-0.707-0.461c-0.939-0.585-2.176-0.298-2.76,0.643
		c-0.585,0.939-0.298,2.175,0.642,2.76c0.194,0.121,0.386,0.245,0.573,0.373l-0.006-0.004c1.331,0.91,2.511,1.972,3.547,3.146
		c0.731,0.829,1.998,0.908,2.827,0.175C5252.098,6051.454,5252.176,6050.188,5251.444,6049.357z M5258.965,6066.472l-1.812-5.733
		c-0.333-1.055-1.459-1.641-2.516-1.307c-1.055,0.334-1.64,1.459-1.306,2.515l1.811,5.733c0.335,1.055,1.46,1.64,2.516,1.307
		C5258.714,6068.652,5259.299,6067.527,5258.965,6066.472z M5271.389,6067.625l-5.949,0.871c-1.096,0.159-1.854,1.177-1.693,2.271
		c0.16,1.097,1.178,1.854,2.273,1.693l5.948-0.87c1.096-0.159,1.854-1.177,1.692-2.273
		C5273.501,6068.223,5272.483,6067.465,5271.389,6067.625z M5289.234,6065.017l-5.949,0.868c-1.095,0.161-1.854,1.179-1.692,2.273
		c0.16,1.095,1.178,1.854,2.272,1.692l5.948-0.869c1.097-0.161,1.854-1.179,1.693-2.272
		C5291.348,6065.613,5290.33,6064.855,5289.234,6065.017z M5307.081,6062.405l-5.949,0.871c-1.096,0.159-1.854,1.177-1.693,2.272
		s1.179,1.853,2.273,1.692l5.948-0.871c1.096-0.159,1.854-1.177,1.692-2.271C5309.193,6063.002,5308.176,6062.245,5307.081,6062.405
		z M5325.87,6061.887c-1.916-0.741-3.939-1.182-6.053-1.193h-0.012c-0.212,0-0.421,0.005-0.628,0.015
		c-1.106,0.052-1.959,0.99-1.907,2.096c0.052,1.104,0.99,1.959,2.096,1.907c0.146-0.006,0.293-0.01,0.439-0.01h-0.013
		c1.575,0.01,3.095,0.331,4.633,0.925c1.032,0.398,2.193-0.114,2.593-1.147C5327.416,6063.446,5326.903,6062.286,5325.87,6061.887
		L5325.87,6061.887z M5340.226,6074.27c-0.972-1.407-1.973-2.702-2.996-3.889l-0.002-0.002c-0.306-0.354-0.613-0.697-0.923-1.032
		c-0.753-0.812-2.021-0.86-2.832-0.109c-0.812,0.753-0.861,2.02-0.108,2.832c0.277,0.302,0.556,0.61,0.832,0.932l-0.002-0.003
		c0.925,1.073,1.839,2.254,2.731,3.547c0.628,0.911,1.877,1.14,2.787,0.512C5340.623,6076.428,5340.853,6075.18,5340.226,6074.27
		L5340.226,6074.27z M5348.259,6090.984c-0.671-2.037-1.39-3.963-2.15-5.78c-0.428-1.021-1.602-1.502-2.623-1.075
		c-1.021,0.428-1.502,1.601-1.074,2.622c0.719,1.718,1.401,3.544,2.041,5.486c0.347,1.051,1.479,1.623,2.531,1.277
		C5348.034,6093.168,5348.605,6092.035,5348.259,6090.984z M5353.781,6108.151l-1.832-5.727c-0.338-1.054-1.465-1.635-2.52-1.297
		c-1.055,0.336-1.636,1.465-1.298,2.519l1.832,5.726c0.338,1.056,1.466,1.637,2.521,1.299
		C5353.537,6110.333,5354.118,6109.206,5353.781,6108.151z M5359.279,6125.329l-1.833-5.727c-0.338-1.054-1.465-1.635-2.52-1.298
		c-1.054,0.338-1.636,1.466-1.298,2.521l1.832,5.727c0.338,1.053,1.466,1.634,2.52,1.297S5359.615,6126.383,5359.279,6125.329z
		 M5364.776,6142.507l-1.833-5.726c-0.337-1.055-1.465-1.636-2.52-1.298c-1.054,0.337-1.635,1.465-1.298,2.519l1.832,5.727
		c0.338,1.055,1.466,1.636,2.52,1.298C5364.531,6144.689,5365.113,6143.562,5364.776,6142.507z M5369.088,6160.705
		c0.055-0.579,0.082-1.163,0.083-1.751c0-1.261-0.13-2.53-0.391-3.789l-0.001-0.005l-0.064-0.308l-0.022-0.105l-0.253-0.788
		c-0.336-1.054-1.466-1.636-2.519-1.298c-1.055,0.338-1.636,1.465-1.297,2.52l0.189,0.595l0.043,0.206l-0.001-0.004
		c0.206,0.993,0.307,1.99,0.308,2.977c-0.001,0.46-0.022,0.918-0.065,1.37c-0.106,1.102,0.702,2.08,1.805,2.186
		C5368.005,6162.613,5368.982,6161.806,5369.088,6160.705L5369.088,6160.705z M5365.062,6176.244l-0.891-3.242l-1.932,0.53
		l1.251,1.564l0.005-0.004l1.029-0.825l-0.947-3.454l-1.932,0.53l1.353,1.478c0.104-0.094,0.206-0.189,0.306-0.285
		c0.801-0.766,0.83-2.033,0.066-2.834c-0.765-0.801-2.033-0.83-2.834-0.064l-0.244,0.228l-0.904,0.827l0.924,3.366l1.933-0.53
		l-1.252-1.565l-0.006,0.004l-1.029,0.823l1.24,4.516c0.292,1.067,1.396,1.694,2.463,1.402
		C5364.728,6178.415,5365.355,6177.312,5365.062,6176.244L5365.062,6176.244z M5369.838,6193.637l-1.592-5.797
		c-0.294-1.067-1.396-1.694-2.463-1.402c-1.067,0.293-1.694,1.396-1.402,2.463l1.593,5.798c0.293,1.067,1.396,1.695,2.462,1.402
		C5369.504,6195.807,5370.131,6194.704,5369.838,6193.637z M5374.614,6211.029l-1.593-5.797c-0.293-1.066-1.396-1.695-2.462-1.401
		c-1.067,0.292-1.695,1.396-1.402,2.462l1.592,5.798c0.294,1.067,1.396,1.694,2.463,1.402
		C5374.279,6213.199,5374.907,6212.097,5374.614,6211.029z M5379.39,6228.421l-1.592-5.797c-0.293-1.066-1.396-1.694-2.463-1.401
		c-1.067,0.293-1.695,1.396-1.401,2.463l1.591,5.797c0.294,1.068,1.396,1.695,2.464,1.402
		C5379.055,6230.592,5379.684,6229.488,5379.39,6228.421z M5382.625,6246.954c0.248-1.086,0.38-2.213,0.38-3.361
		c-0.001-1.109-0.123-2.223-0.369-3.32l0.001,0.008l-0.034-0.15l-0.014-0.061l-0.021-0.077c-0.306-1.063-1.417-1.679-2.479-1.371
		c-1.064,0.307-1.678,1.417-1.371,2.48l0.004,0.015l1.926-0.554l-1.957,0.433l0.034,0.15l0.001,0.008
		c0.182,0.807,0.272,1.627,0.272,2.439c-0.001,0.843-0.097,1.668-0.278,2.465c-0.249,1.079,0.425,2.154,1.505,2.401
		C5381.302,6248.706,5382.376,6248.032,5382.625,6246.954z M5368.061,6259.152l2.505-0.52l-0.672-3.948l-0.015,0.002l0.266,1.986
		l0.401,1.963c1.309-0.267,2.558-0.694,3.721-1.257c0.996-0.482,1.412-1.682,0.931-2.678c-0.482-0.997-1.681-1.413-2.677-0.931
		c-0.867,0.42-1.798,0.739-2.777,0.938l0.665,3.95l0.017-0.002l-0.266-1.986l-0.407-1.963l-2.505,0.521
		c-1.084,0.225-1.78,1.285-1.555,2.369C5365.916,6258.681,5366.977,6259.378,5368.061,6259.152L5368.061,6259.152z"/>
</g>
<polygon fill="#FFFFFF" points="5486.381,6264.939 4986.381,6264.939 4986.381,6248.096 5089.704,6246.638 5139.916,6239.536 
	5177.363,6246.203 5236.655,6240.673 5285.58,6246.233 5338.866,6237.372 5387.287,6246.874 5420.452,6241.984 5438.041,6237.855 
	5465.644,6248.004 5486.381,6248.096 "/>
<g>
	<path fill="#52E0FF" d="M5486.381,6248.096c0,0-0.502,0.015-1.475,0.042c-0.974,0.016-2.417,0.1-4.303,0.092
		c-3.776-0.057-9.351-0.188-16.359-1.348c-3.5-0.582-7.365-1.378-11.494-2.541c-2.064-0.574-4.198-1.224-6.384-1.949
		c-2.181-0.715-4.433-1.507-6.678-2.14c-0.555-0.146-1.126-0.316-1.647-0.393c-0.262-0.043-0.544-0.114-0.791-0.14l-0.695-0.034
		l-0.173-0.013c0.297-0.01,0.015,0.006,0.05,0.007l-0.117,0.015l-0.473,0.059l-0.475,0.062c-0.159,0.02-0.244,0.068-0.369,0.099
		l-0.697,0.196c-0.237,0.062-0.559,0.187-0.834,0.277c-2.303,0.793-4.782,1.861-7.351,2.882c-5.156,2.057-10.782,3.979-16.817,5.368
		c-6.026,1.407-12.444,2.34-19.116,2.711c-0.834,0.039-1.673,0.078-2.515,0.118l-1.267,0.058l-1.311-0.006
		c-0.827-0.004-1.656-0.007-2.488-0.011c-0.831-0.004-1.655,0.004-2.55-0.055c-3.529-0.141-7.034-0.396-10.572-0.873
		c-0.887-0.123-1.775-0.244-2.667-0.366c-0.887-0.155-1.776-0.311-2.668-0.467c-1.792-0.29-3.566-0.719-5.362-1.103
		c-3.57-0.856-7.15-1.876-10.677-3.047c-1.734-0.594-3.477-1.191-5.229-1.792c-1.717-0.601-3.39-1.187-4.885-1.592l-0.982-0.206
		c-0.157-0.032-0.221-0.007-0.334-0.022l-0.151-0.016l-0.075-0.012c0.13-0.009-0.399,0.004,0.272-0.024l-0.694,0.071l-0.348,0.037
		c-0.118,0.011-0.243,0.021-0.271,0.047c-0.219,0.084-0.421,0.141-0.66,0.193c-1.493,0.451-3.194,1.087-4.936,1.752
		c-3.495,1.342-7.194,2.734-10.989,3.896c-3.801,1.164-7.696,2.191-11.673,2.951c-7.935,1.572-16.188,2.182-24.342,1.988
		c-8.26-0.159-16.612-1.26-24.724-3.321c-4.055-1.038-8.052-2.324-11.917-3.711l-5.623-2.04l-1.325-0.456l-1.219-0.368
		c-0.398-0.117-0.683-0.15-1.027-0.242c-0.199-0.062-0.234-0.025-0.334-0.04l-0.13-0.017l-0.064-0.013
		c0.164-0.012-0.458,0.008,0.351-0.032l-0.75,0.07c-0.223,0.027-0.581,0.038-0.606,0.086c-0.095,0.037-0.19,0.068-0.289,0.093
		c-0.119,0.034-0.139,0.015-0.389,0.098l-1.22,0.367l-1.324,0.458l-5.623,2.038c-3.866,1.387-7.862,2.672-11.916,3.711
		c-8.121,2.065-16.46,3.169-24.691,3.325l-3.085,0.053l-0.384,0.007l-0.485-0.007l-0.738-0.021l-1.477-0.041l-2.956-0.089
		l-3.125-0.223c-2.101-0.124-4.096-0.425-6.122-0.66c-2.014-0.289-4.021-0.616-6.006-1c-3.978-0.761-7.874-1.79-11.675-2.953
		c-3.795-1.162-7.494-2.556-10.989-3.896c-1.741-0.666-3.442-1.303-4.937-1.753l-0.979-0.238c-0.278-0.05-0.423-0.037-0.642-0.095
		c0.678-0.031,0.088,0,0.195-0.003l-0.175,0.013l-0.346,0.028c-0.207,0.022-0.517,0.029-0.639,0.064
		c-0.217,0.073-0.433,0.128-0.656,0.163c-1.483,0.404-3.169,0.984-4.877,1.596c-1.752,0.601-3.496,1.197-5.229,1.792
		c-3.529,1.17-7.107,2.19-10.679,3.046c-1.797,0.383-3.571,0.812-5.363,1.102c-0.892,0.156-1.782,0.312-2.669,0.467
		c-0.892,0.122-1.781,0.244-2.667,0.366c-7.077,0.927-14.065,1.141-20.675,0.771c-1.59-0.043-3.311-0.24-4.959-0.382
		c-1.671-0.123-3.274-0.372-4.872-0.587c-3.195-0.44-6.305-1.05-9.318-1.747c-6.035-1.39-11.66-3.315-16.819-5.368
		c-2.566-1.021-5.046-2.089-7.348-2.883c-0.588-0.22-1.125-0.356-1.656-0.494c-0.282-0.091-0.512-0.113-0.738-0.141l-0.344-0.051
		l-0.088-0.015c0.048-0.008-0.227-0.003,0.084-0.021l-0.236,0.015l-0.942,0.057c-0.278,0.032-0.477,0.097-0.719,0.137
		c-0.427,0.058-1.024,0.229-1.578,0.377c-2.243,0.632-4.496,1.425-6.678,2.139c-2.184,0.726-4.316,1.377-6.384,1.949
		c-4.128,1.162-7.994,1.957-11.494,2.538c-7.011,1.158-12.583,1.29-16.354,1.345c-1.889,0.006-3.336-0.076-4.309-0.093
		c-0.974-0.028-1.477-0.043-1.477-0.043s2.003-0.153,5.758-0.439c3.736-0.374,9.21-1.089,15.982-2.723
		c3.379-0.838,7.08-1.903,11.011-3.351c1.968-0.722,3.999-1.511,6.111-2.355c2.116-0.845,4.28-1.773,6.697-2.629
		c0.621-0.205,1.194-0.426,1.99-0.603c0.364-0.084,0.771-0.192,1.11-0.25l0.937-0.116l0.235-0.03
		c0.39-0.012,0.192,0.001,0.319,0.001l0.149,0.009l0.602,0.035c0.41,0.022,0.817,0.056,1.155,0.138
		c0.72,0.132,1.442,0.277,2.09,0.472c2.669,0.734,5.169,1.636,7.767,2.476c5.16,1.681,10.563,3.278,16.342,4.288
		c2.884,0.512,5.843,0.94,8.873,1.201c1.518,0.124,3.054,0.286,4.572,0.317c1.535,0.051,3.022,0.161,4.681,0.124
		c6.367,0.045,12.848-0.347,19.423-1.467c0.819-0.143,1.643-0.285,2.466-0.429c0.819-0.176,1.641-0.35,2.464-0.525
		c1.652-0.326,3.285-0.789,4.937-1.203c3.29-0.918,6.572-1.982,9.881-3.214c1.673-0.644,3.354-1.289,5.043-1.938
		c1.727-0.655,3.503-1.332,5.577-1.943c0.677-0.167,1.365-0.317,2.054-0.446c0.33-0.061,0.489-0.058,0.74-0.09l0.348-0.037
		l0.173-0.018c0.223-0.011-0.251,0,0.541-0.029c0.705,0.043,1.492,0.09,2.131,0.198l1.748,0.378
		c2.096,0.577,3.916,1.232,5.707,1.866c3.562,1.28,7.002,2.484,10.543,3.485c3.534,0.995,7.114,1.857,10.765,2.471
		c1.823,0.312,3.662,0.57,5.51,0.794c1.849,0.17,3.728,0.413,5.541,0.475l2.746,0.171l2.939,0.058l1.476,0.023l0.739,0.014
		l0.186,0.002c0.086,0.003-0.087-0.004,0.07-0.004l0.354-0.01l2.837-0.081c3.787-0.104,7.563-0.478,11.324-0.987
		c3.752-0.559,7.48-1.306,11.175-2.241c3.693-0.963,7.332-2.146,11.011-3.48l5.689-2.085l1.52-0.529l1.663-0.508
		c0.225-0.079,0.701-0.181,1.07-0.265l1.18-0.236c0.462-0.092,0.609-0.082,0.885-0.113l0.75-0.067
		c0.933-0.029,0.436,0.002,0.726,0.001l0.311,0.022l0.619,0.053c0.398,0.043,0.871,0.08,1.156,0.158
		c0.63,0.144,1.339,0.283,1.903,0.45l1.662,0.508l1.52,0.529l5.688,2.085c3.681,1.336,7.318,2.518,11.011,3.48
		c3.696,0.933,7.423,1.69,11.176,2.246c1.874,0.246,3.781,0.488,5.634,0.65c1.874,0.115,3.618,0.319,5.657,0.335l2.96,0.084
		l0.369,0.01c0.16,0.002-0.007,0.003,0.073,0.001l0.178-0.002l0.708-0.013l1.416-0.024l2.827-0.052l2.81-0.166
		c3.745-0.199,7.444-0.663,11.095-1.272c3.649-0.614,7.231-1.478,10.766-2.472c3.541-1.002,6.981-2.207,10.543-3.484
		c1.791-0.635,3.612-1.29,5.706-1.87c0.671-0.158,1.38-0.3,2.068-0.421c0.197-0.039,0.306-0.045,0.418-0.054l0.348-0.028
		l0.694-0.057c0.786-0.029,0.373,0.002,0.618,0.001l0.271,0.021l0.541,0.049c0.349,0.04,0.751,0.07,1.048,0.133l1.728,0.402
		c2.062,0.613,3.85,1.282,5.568,1.95c1.69,0.648,3.371,1.293,5.043,1.936c3.309,1.231,6.594,2.296,9.883,3.214
		c1.651,0.414,3.283,0.876,4.938,1.202c0.823,0.176,1.645,0.351,2.464,0.525c0.823,0.144,1.646,0.286,2.467,0.43
		c3.285,0.566,6.565,0.921,9.729,1.169c0.777,0.085,1.624,0.107,2.456,0.141c0.831,0.034,1.66,0.068,2.483,0.101l1.156,0.048
		l1.195,0.003c0.794,0.002,1.587,0.006,2.375,0.009c6.308-0.034,12.393-0.605,18.158-1.648c5.779-1.009,11.183-2.612,16.345-4.288
		c2.598-0.84,5.097-1.741,7.765-2.478c0.349-0.088,0.637-0.184,1.03-0.265l1.186-0.227c0.188-0.03,0.411-0.081,0.57-0.09
		l0.476-0.029l0.477-0.029l0.405-0.021l0.298,0.03l1.184,0.14c0.37,0.065,0.691,0.166,1.039,0.248c0.7,0.158,1.3,0.382,1.917,0.587
		c2.418,0.854,4.581,1.783,6.699,2.627c2.111,0.845,4.143,1.636,6.109,2.355c3.933,1.446,7.634,2.512,11.015,3.349
		c6.772,1.632,12.246,2.347,15.978,2.719C5484.377,6247.943,5486.381,6248.096,5486.381,6248.096z"/>
</g>
</svg>
