{
  "page": [
    {
      "addOffer": [
        {
          "new": "add-offer-new.html"
        },
        {
          "new2": "add-offer-new2.html"
        },
        {
          "review": "add-offer-review.html"
        },
        {
          "reviewForm": "add-offer-review-form.html"
        }
      ]
    },
    {
      "offers": [
        {
          "empty": "offer-empty.html"
        },
        {
          "list": "offer-list.html"
        },
        {
          "detail": "offer-detail.html"
        },
        {
          "hotJobs": "offer-hotjobs.html"
        },
        {
          "hotJobs2": "offer-hotjobs2.html"
        }
      ]
    },
    {
      "candidates": [
        {
          "empty": "candidates-empty.html"
        },
        {
          "list": "candidates-list.html"
        },
        {
          "detail": "candidates-detail.html"
        }
      ]
    },{
      "talents": [
        {
          "list": "talents-list.html"
        }
      ]
    },
    {
      "profile": [
        {
          "front": "profile-front.html"
        },
        {
          "edit": "profile-edit.html"
        }
      ]
    }, {
      "settings": [
        {
          "company": "settings-company.html"
        },
        {
          "billing": "settings-billing.html"
        },
        {
          "users": "settings-users.html"
        },
        {
          "autoReply": "settings-auto-reply.html"
        }
      ]
    }, {
      "billing": [
        {
          "summary": "billing-summary.html"
        },
        {
          "invoices": "billing-invoices.html"
        },
        {
          "credits": "billing-credits.html"
        },
        {
          "credits2": "billing-credits2.html"
        }
      ]
    }, {
      "help": [
        {
          "list": "help-list.html"
        }
      ]
    }, {
      "registration": [
        {
          "page1": "registration-page1.html"
        },
        {
          "page2": "registration-page2.html"
        }
      ]
    }
  ]
}