<?xml version="1.0" encoding="utf-8"?>
<!-- Generator: Adobe Illustrator 16.0.0, SVG Export Plug-In . SVG Version: 6.00 Build 0)  -->
<!DOCTYPE svg PUBLIC "-//W3C//DTD SVG 1.1//EN" "http://www.w3.org/Graphics/SVG/1.1/DTD/svg11.dtd">
<svg version="1.1" id="Layer_1" xmlns="http://www.w3.org/2000/svg" xmlns:xlink="http://www.w3.org/1999/xlink" x="0px" y="0px"
	 width="30px" height="30px" viewBox="0 0 30 30" enable-background="new 0 0 30 30" xml:space="preserve">
<path fill="#8C96A9" d="M14.999,12.244L4.411,22.834c-0.778,0.776-2.045,0.776-2.826,0c-0.78-0.785-0.78-2.053,0-2.827L12.167,9.415
	l2.832-2.832l2.828,2.832l10.59,10.592c0.779,0.774,0.779,2.042,0,2.827c-0.785,0.776-2.054,0.776-2.833,0L14.999,12.244z"/>
</svg>
