<?xml version="1.0" encoding="utf-8"?>
<!-- Generator: Adobe Illustrator 16.0.0, SVG Export Plug-In . SVG Version: 6.00 Build 0)  -->
<!DOCTYPE svg PUBLIC "-//W3C//DTD SVG 1.1//EN" "http://www.w3.org/Graphics/SVG/1.1/DTD/svg11.dtd">
<svg version="1.1" id="Layer_1" xmlns="http://www.w3.org/2000/svg" xmlns:xlink="http://www.w3.org/1999/xlink" x="0px" y="0px"
	 width="30px" height="30px" viewBox="0 0 30 30" enable-background="new 0 0 30 30" xml:space="preserve">
<g>
	<path fill="#19AA4C" d="M28.182,8.657c-0.36-0.281-0.814-0.449-1.307-0.449H12.321c-0.504,0-0.967,0.175-1.332,0.471l8.583,6.567
		L28.182,8.657z"/>
	<path fill="#19AA4C" d="M28.962,9.943l-6.598,5.053l6.601,5.042C28.987,19.918,29,19.795,29,19.669V10.33
		C29,10.198,28.985,10.07,28.962,9.943z"/>
	<path fill="#19AA4C" d="M10.226,9.98c-0.018,0.114-0.028,0.23-0.028,0.351v9.339c0,0.127,0.013,0.251,0.033,0.369l6.562-5.034
		L10.226,9.98z"/>
	<path fill="#19AA4C" d="M20.026,16.783c-0.269,0.205-0.64,0.205-0.91,0l-1.092-0.836l-7.021,5.386
		c0.363,0.289,0.82,0.459,1.318,0.459h14.554c0.497,0,0.956-0.171,1.32-0.46l-7.065-5.394L20.026,16.783z"/>
	<path fill="#19AA4C" d="M7.705,9.02H1.751C1.336,9.02,1,9.354,1,9.769s0.336,0.749,0.751,0.749h5.954c0.414,0,0.75-0.336,0.75-0.75
		C8.455,9.353,8.119,9.02,7.705,9.02z"/>
	<path fill="#19AA4C" d="M7.705,19.483h-1.46c-0.413,0-0.749,0.336-0.749,0.75s0.336,0.749,0.749,0.749h1.46
		c0.414,0,0.75-0.335,0.75-0.749S8.119,19.483,7.705,19.483z"/>
	<path fill="#19AA4C" d="M7.705,14.251H3.997c-0.414,0-0.749,0.334-0.749,0.749s0.335,0.75,0.749,0.75h3.708
		c0.414,0,0.75-0.335,0.75-0.75S8.119,14.251,7.705,14.251z"/>
</g>
</svg>
