<?xml version="1.0" encoding="utf-8"?>
<!-- Generator: Adobe Illustrator 16.0.0, SVG Export Plug-In . SVG Version: 6.00 Build 0)  -->
<!DOCTYPE svg PUBLIC "-//W3C//DTD SVG 1.1//EN" "http://www.w3.org/Graphics/SVG/1.1/DTD/svg11.dtd">
<svg version="1.1" id="Layer_1" xmlns="http://www.w3.org/2000/svg" xmlns:xlink="http://www.w3.org/1999/xlink" x="0px" y="0px"
	 width="30px" height="30px" viewBox="0 0 30 30" enable-background="new 0 0 30 30" xml:space="preserve">
<g>
	<path fill="#4E99E3" d="M24.898,5.102C22.367,2.569,18.865,1,15.001,1c-3.866,0-7.369,1.568-9.9,4.102C2.568,7.633,1,11.136,1,15
		s1.568,7.367,4.101,9.898C7.632,27.434,11.135,29,15.001,29c3.864,0,7.366-1.566,9.897-4.102C27.436,22.365,29.001,18.865,29,15
		C29.001,11.136,27.436,7.633,24.898,5.102z M24.129,24.129c-2.338,2.338-5.562,3.781-9.128,3.781c-3.568,0-6.792-1.443-9.13-3.781
		C3.534,21.791,2.09,18.568,2.09,15c0-3.568,1.444-6.792,3.78-9.129c2.338-2.337,5.563-3.78,9.13-3.78
		c3.566,0,6.79,1.444,9.128,3.78C26.466,8.208,27.91,11.433,27.91,15C27.91,18.568,26.466,21.791,24.129,24.129z"/>
	<path fill="#4E99E3" d="M20.607,8.51C19.9,7.862,19.08,7.367,18.143,7.027c-0.939-0.34-1.937-0.512-2.989-0.512
		c-1.079,0-2.104,0.174-3.072,0.522c-0.97,0.347-1.825,0.863-2.564,1.55c-0.739,0.688-1.326,1.551-1.764,2.592
		c-0.437,1.041-0.655,2.253-0.655,3.642c0,1.438,0.222,2.683,0.666,3.729c0.443,1.048,1.043,1.908,1.802,2.58
		c0.758,0.679,1.644,1.179,2.658,1.506c1.015,0.326,2.094,0.49,3.238,0.49c0.655,0,1.27-0.043,1.842-0.135
		c0.57-0.091,0.965-0.175,1.187-0.25l-0.194-1.427c-0.141,0.052-0.458,0.121-0.954,0.213c-0.495,0.089-1.12,0.136-1.879,0.136
		c-0.977,0-1.873-0.147-2.688-0.437c-0.815-0.291-1.521-0.723-2.12-1.289c-0.598-0.573-1.063-1.285-1.396-2.141
		c-0.334-0.854-0.501-1.846-0.501-2.978c0-1.079,0.158-2.042,0.473-2.892c0.314-0.848,0.754-1.563,1.318-2.149
		c0.566-0.583,1.241-1.033,2.024-1.348c0.785-0.314,1.646-0.473,2.583-0.473c0.938,0,1.782,0.154,2.534,0.463
		c0.752,0.307,1.392,0.733,1.92,1.272c0.525,0.539,0.932,1.166,1.214,1.878c0.28,0.714,0.422,1.474,0.422,2.284
		c0,0.489-0.037,0.967-0.115,1.438c-0.077,0.468-0.196,0.892-0.356,1.263c-0.16,0.37-0.363,0.674-0.614,0.905
		c-0.253,0.229-0.544,0.347-0.878,0.347c-0.23,0-0.418-0.082-0.559-0.25c-0.142-0.166-0.211-0.455-0.211-0.867v-5.898
		c-0.298-0.102-0.719-0.205-1.265-0.308c-0.545-0.104-1.146-0.154-1.8-0.154c-0.695,0-1.313,0.115-1.859,0.347
		c-0.546,0.232-1.009,0.548-1.388,0.955c-0.382,0.403-0.668,0.878-0.86,1.425c-0.192,0.546-0.29,1.126-0.29,1.745
		c0,0.732,0.104,1.375,0.309,1.926c0.206,0.553,0.495,1.02,0.866,1.397c0.373,0.377,0.812,0.664,1.321,0.856
		c0.507,0.193,1.069,0.289,1.686,0.289c0.398,0,0.795-0.055,1.193-0.162c0.398-0.108,0.74-0.241,1.022-0.396
		c0.179,0.193,0.402,0.348,0.675,0.463c0.271,0.115,0.61,0.172,1.021,0.172c0.515,0,1.002-0.115,1.465-0.346
		c0.463-0.232,0.863-0.576,1.195-1.033c0.334-0.455,0.602-1.017,0.799-1.686c0.198-0.67,0.301-1.438,0.301-2.312
		c0-1.158-0.209-2.192-0.619-3.113C21.871,9.941,21.314,9.159,20.607,8.51z M16.109,17.703c-0.277,0.057-0.551,0.086-0.82,0.086
		c-0.745,0-1.336-0.27-1.772-0.809c-0.438-0.541-0.655-1.269-0.655-2.181c0-0.861,0.224-1.573,0.674-2.138
		c0.451-0.565,1.132-0.848,2.042-0.848c0.271,0,0.516,0.014,0.732,0.039c0.219,0.026,0.366,0.052,0.442,0.076v4.529
		c0,0.153,0.008,0.315,0.021,0.481c0.015,0.166,0.041,0.334,0.076,0.5C16.631,17.559,16.384,17.645,16.109,17.703z"/>
</g>
</svg>
