<?xml version="1.0" encoding="utf-8"?>
<!-- Generator: Adobe Illustrator 16.0.0, SVG Export Plug-In . SVG Version: 6.00 Build 0)  -->
<!DOCTYPE svg PUBLIC "-//W3C//DTD SVG 1.1//EN" "http://www.w3.org/Graphics/SVG/1.1/DTD/svg11.dtd">
<svg version="1.1" id="Layer_1" xmlns="http://www.w3.org/2000/svg" xmlns:xlink="http://www.w3.org/1999/xlink" x="0px" y="0px"
	 width="30px" height="30px" viewBox="0 0 30 30" enable-background="new 0 0 30 30" xml:space="preserve">
<g>
	<path fill="#8C96A9" d="M21.98,22.626c-0.69,0-1.265-0.103-1.724-0.296c-0.445-0.192-0.828-0.444-1.129-0.772
		c-0.471,0.254-1.059,0.476-1.721,0.664c-0.677,0.187-1.342,0.273-2.013,0.273c-1.039,0-1.99-0.164-2.844-0.475
		c-0.857-0.329-1.598-0.814-2.226-1.449c-0.63-0.646-1.111-1.422-1.463-2.365C8.508,17.275,8.34,16.198,8.34,14.96
		c0-1.038,0.155-2.022,0.482-2.94c0.327-0.917,0.807-1.723,1.448-2.407c0.639-0.683,1.421-1.217,2.338-1.609
		c0.918-0.387,1.968-0.581,3.133-0.581c1.112,0,2.124,0.084,3.035,0.26c0.926,0.169,1.636,0.345,2.132,0.52v9.942
		c0,0.688,0.127,1.179,0.355,1.468c0.242,0.278,0.549,0.417,0.948,0.417c0.557,0,1.05-0.192,1.478-0.58
		c0.417-0.4,0.769-0.901,1.044-1.529c0.27-0.627,0.468-1.34,0.6-2.13c0.134-0.792,0.193-1.597,0.193-2.42
		c0-1.365-0.24-2.649-0.712-3.853c-0.484-1.203-1.153-2.257-2.049-3.17c-0.898-0.907-1.967-1.625-3.232-2.145
		c-1.274-0.52-2.697-0.78-4.275-0.78c-1.583,0-3.033,0.269-4.357,0.801c-1.318,0.532-2.46,1.289-3.407,2.273
		C6.54,7.482,5.8,8.686,5.268,10.119c-0.535,1.433-0.796,3.052-0.796,4.878c0,1.91,0.277,3.58,0.845,5.011
		c0.561,1.444,1.344,2.648,2.354,3.609c1.008,0.975,2.198,1.694,3.572,2.183c1.377,0.49,2.884,0.734,4.533,0.734
		c1.275,0,2.336-0.08,3.166-0.234c0.842-0.146,1.367-0.261,1.609-0.343l0.329,2.392c-0.363,0.131-1.038,0.273-1.999,0.43
		C17.921,28.924,16.884,29,15.777,29c-1.925,0-3.745-0.272-5.454-0.825c-1.718-0.548-3.21-1.395-4.484-2.536
		c-1.281-1.13-2.294-2.593-3.038-4.351C2.052,19.515,1.681,17.429,1.681,15c0-2.338,0.362-4.387,1.107-6.14
		c0.729-1.752,1.724-3.212,2.97-4.371c1.245-1.153,2.684-2.028,4.321-2.613C11.715,1.289,13.441,1,15.259,1
		c1.77,0,3.459,0.288,5.04,0.862c1.571,0.573,2.962,1.406,4.158,2.501c1.188,1.094,2.133,2.417,2.82,3.964
		c0.69,1.547,1.042,3.298,1.042,5.249c0,1.475-0.167,2.769-0.498,3.905c-0.331,1.125-0.79,2.064-1.356,2.844
		c-0.556,0.766-1.232,1.344-2.006,1.729C23.67,22.435,22.85,22.626,21.98,22.626z M15.489,19.998c0.448,0,0.908-0.052,1.375-0.154
		c0.465-0.091,0.893-0.245,1.254-0.438c-0.061-0.278-0.109-0.556-0.133-0.845c-0.012-0.277-0.03-0.55-0.03-0.803v-7.64
		c-0.133-0.042-0.382-0.084-0.745-0.126c-0.373-0.047-0.784-0.067-1.243-0.067c-1.531,0-2.687,0.478-3.441,1.426
		c-0.755,0.955-1.136,2.158-1.136,3.609c0,1.541,0.369,2.769,1.106,3.674C13.227,19.539,14.23,19.998,15.489,19.998z"/>
</g>
</svg>
