<?xml version="1.0" encoding="utf-8"?>
<!-- Generator: Adobe Illustrator 16.0.0, SVG Export Plug-In . SVG Version: 6.00 Build 0)  -->
<!DOCTYPE svg PUBLIC "-//W3C//DTD SVG 1.1//EN" "http://www.w3.org/Graphics/SVG/1.1/DTD/svg11.dtd">
<svg version="1.1" id="Layer_1" xmlns="http://www.w3.org/2000/svg" xmlns:xlink="http://www.w3.org/1999/xlink" x="0px" y="0px"
	 width="30px" height="30px" viewBox="0 0 30 30" enable-background="new 0 0 30 30" xml:space="preserve">
<g>
	<path fill="#8C96A9" d="M25.007,11.771l2.753-2.752C28.583,8.196,29,7.098,29,6.021c0-1.079-0.417-2.176-1.24-3l-0.778-0.78
		C26.153,1.416,25.062,1,23.984,1h-0.007h-0.004c-1.08,0-2.174,0.416-2.995,1.242l-2.752,2.752L25.007,11.771z"/>
	<path fill="#8C96A9" d="M4.458,19.238l-3.331,7.619c-0.252,0.574-0.123,1.254,0.32,1.702C1.738,28.845,2.132,29,2.529,29
		c0.208,0,0.413-0.04,0.611-0.128l7.62-3.333L4.458,19.238z"/>
	
		<rect x="7.099" y="10.593" transform="matrix(-0.7072 0.707 -0.707 -0.7072 35.8302 15.9394)" fill="#8C96A9" width="15.031" height="9.593"/>
</g>
</svg>
