<?xml version="1.0" encoding="utf-8"?>
<!-- Generator: Adobe Illustrator 16.0.0, SVG Export Plug-In . SVG Version: 6.00 Build 0)  -->
<!DOCTYPE svg PUBLIC "-//W3C//DTD SVG 1.1//EN" "http://www.w3.org/Graphics/SVG/1.1/DTD/svg11.dtd">
<svg version="1.1" id="Layer_1" xmlns="http://www.w3.org/2000/svg" xmlns:xlink="http://www.w3.org/1999/xlink" x="0px" y="0px"
	 width="30px" height="30px" viewBox="0 0 30 30" enable-background="new 0 0 30 30" xml:space="preserve">
<g>
	<path fill="#4E99E3" d="M15,1C7.268,1.001,1.001,7.268,1,15c0,7.732,6.268,14,14,14c7.732,0,14-6.268,14-14
		C29,7.268,22.732,1.001,15,1z M24.129,24.129c-2.339,2.337-5.562,3.782-9.129,3.782c-3.566,0-6.792-1.445-9.129-3.782
		C3.534,21.793,2.089,18.566,2.089,15c0-3.566,1.444-6.792,3.781-9.129C8.208,3.534,11.434,2.089,15,2.089
		c3.564,0,6.79,1.444,9.129,3.781c2.337,2.338,3.782,5.562,3.782,9.129C27.911,18.566,26.466,21.793,24.129,24.129z"/>
	<path fill="#4E99E3" d="M18.609,7.997c-0.24-0.011-0.482-0.02-0.723-0.045c-0.496-0.053-0.994-0.042-1.49-0.027
		c-0.197,0.007-0.396,0.057-0.594,0.1c-0.14,0.03-0.279,0.07-0.41,0.124c-0.17,0.07-0.34,0.146-0.499,0.239
		c-0.333,0.196-0.604,0.46-0.822,0.78c-0.141,0.208-0.259,0.428-0.335,0.668c-0.05,0.152-0.105,0.303-0.137,0.458
		c-0.04,0.193-0.078,0.39-0.081,0.585c-0.013,0.714-0.011,1.428-0.014,2.142c0,0.114-0.004,0.118-0.115,0.118
		c-0.661,0-1.323,0-1.983,0l-0.091,0.094c0,0.773,0,1.545,0,2.317l0.088,0.089c0.665,0,1.33,0,1.996,0
		c0.095,0,0.105,0.016,0.105,0.112c0,2.101,0,4.2,0,6.302v0.035h2.581c0-0.768,0-1.548,0-2.314c0-1.324,0-2.65,0-3.979
		c0-0.154,0.001-0.154,0.154-0.154c0.646-0.002,1.287-0.002,1.935-0.002c0.104,0,0.107-0.006,0.115-0.107
		c0.015-0.147,0.033-0.295,0.053-0.442c0.022-0.168,0.044-0.335,0.067-0.503c0.035-0.258,0.068-0.515,0.104-0.773
		c0.021-0.16,0.036-0.323,0.057-0.484l0.025-0.137l-0.044-0.052h-0.125c-0.741,0-1.483,0-2.227,0c-0.106,0-0.112-0.005-0.112-0.115
		c0-0.551-0.005-1.102,0.003-1.654c0.003-0.261,0.04-0.518,0.204-0.738c0.122-0.165,0.29-0.257,0.482-0.317
		c0.226-0.068,0.455-0.072,0.685-0.071c0.384,0.002,0.769,0,1.152,0.002l0.069-0.075c-0.002-0.678-0.002-1.354-0.002-2.032
		l0.002-0.063L18.609,7.997z"/>
</g>
</svg>
